<?xml version="1.0" encoding="utf-8"?>
<!-- Generator: Adobe Illustrator 21.1.0, SVG Export Plug-In . SVG Version: 6.00 Build 0)  -->
<svg version="1.1" id="Layer_1" xmlns="http://www.w3.org/2000/svg" xmlns:xlink="http://www.w3.org/1999/xlink" x="0px" y="0px"
	 viewBox="0 0 67.2 87.5" style="enable-background:new 0 0 67.2 87.5;" xml:space="preserve">
<style type="text/css">
	.st0{fill:#D97F29;}
	.st1{fill:#4D4D4F;}
</style>
<title>Asset 7</title>
<g id="Layer_2">
	<g id="Body">
		<path class="st0" d="M47,32.6V77c0,5.4,4.4,9.7,9.7,9.7c5.4,0,9.7-4.3,9.7-9.7V32.6H47z"/>
		<path class="st1" d="M18.2,13.4h1.3v3.8H21v-3.8h1.3v8.8H21v-3.9h-1.5v3.9h-1.3V13.4z"/>
		<path class="st1" d="M23.7,15.5c-0.1-1.2,0.8-2.2,2-2.3c1.2-0.1,2.2,0.8,2.3,2c0,0.1,0,0.2,0,0.3v4.6c0.1,1.2-0.8,2.2-2,2.3
			c-1.2,0.1-2.2-0.8-2.3-2c0-0.1,0-0.2,0-0.3V15.5z M25,20.1c0,0.5,0.4,0.9,0.9,0.9s0.9-0.4,0.9-0.9v-4.6c0-0.5-0.4-0.9-0.9-0.9
			S25,15,25,15.5V20.1z"/>
		<path class="st1" d="M30,14.6h-1.4v-1.2h4.2v1.2h-1.5v7.6H30V14.6z"/>
		<path class="st1" d="M0,42.3h1.2l1.6,4.6l0,0l1.6-4.6h1.2V51H4.4v-5.3l0,0l-1.3,3.8H2.5l-1.2-3.8l0,0v5.3H0V42.3z"/>
		<path class="st1" d="M7.1,42.3h3.7v1.2H8.4V46h2.2v1.2H8.4v2.6h2.5v1.3H7.1V42.3z"/>
		<path class="st1" d="M12,42.3h1.9c1.1-0.1,2.1,0.7,2.2,1.8c0,0.2,0,0.3,0,0.5v4.1c0.2,1.1-0.6,2.2-1.8,2.4c-0.2,0-0.4,0-0.6,0H12
			V42.3z M13.3,49.9h0.6c0.7,0,1-0.3,1-1.1v-4.2c0-0.7-0.2-1.1-1-1.1h-0.6V49.9z"/>
		<path class="st1" d="M17.6,42.3h1.3V51h-1.3V42.3z"/>
		<path class="st1" d="M24.4,49.1c0,1.1-0.9,2-2,2c-1.1,0-2-0.9-2-2l0,0v-6.8h1.3V49c0,0.6,0.3,0.9,0.8,0.9s0.8-0.3,0.8-0.9v-6.7
			h1.3L24.4,49.1z"/>
		<path class="st1" d="M25.9,42.3h1.2l1.6,4.6l0,0l1.6-4.6h1.2V51h-1.2v-5.3l0,0L29,49.5h-0.6l-1.2-3.8l0,0v5.3h-1.2V42.3z"/>
		<path class="st1" d="M12.9,68.3h1.2l1.6,4.7l0,0l1.6-4.6h1.2v8.8h-1.2v-5.4l0,0l-1.2,3.8h-0.6l-1.2-3.8l0,0v5.3h-1.3V68.3z"/>
		<path class="st1" d="M20.1,68.3h1.3v8.8h-1.3V68.3z"/>
		<path class="st1" d="M22.9,68.3h1.3v7.5h2.5v1.3h-3.8V68.3z"/>
		<path class="st1" d="M27.7,68.3h1.9c1.1-0.1,2.1,0.7,2.2,1.8c0,0.2,0,0.3,0,0.5v4.1c0.2,1.1-0.6,2.2-1.8,2.4c-0.2,0-0.4,0-0.5,0
			h-1.8V68.3z M29,75.9h0.6c0.7,0,1-0.3,1-1.1v-4.2c0-0.7-0.2-1.1-1-1.1H29V75.9z"/>
		<path class="st1" d="M56.7,0c-5.8,0-10.5,4.7-10.5,10.5V18H33.9v1.6h12.3v12.7h-7.3v0.8h7.3v12.7H33.9v1.6h12.3v11.9h-7.3v0.8h7.3
			v11.6H33.9v1.6h12.3V77c0,5.8,4.7,10.5,10.5,10.5c5.8,0,10.5-4.7,10.5-10.5V10.5C67.2,4.7,62.5,0,56.7,0z M65.6,77
			c0,4.9-4,8.9-8.9,8.9c-4.9,0-8.9-4-8.9-8.9V10.5c0-4.9,4-8.9,8.9-8.9c4.9,0,8.9,4,8.9,8.9V77z"/>
	</g>
</g>
</svg>
